-72 -40 32 -48 768 
40 -72 -72 -64 712 
-80 48 -72 16 -72 664 
-72 -48 -80 768 
-8 56 -80 64 -8 736 
-8 16 -48 8 -72 800 
-24 128 -40 -48 720 
-80 48 -80 56 -32 656 
-56 -8 128 -32 736 
16 -8 40 -64 -56 768 
-24 72 -64 -24 776 
72 -32 64 -8 -80 696 
-80 64 -8 -32 776 
72 -24 -32 -24 808 
56 -64 80 -64 -40 648 
-72 88 -72 -32 696 
16 -40 -40 64 -24 768 
56 -48 48 -8 -56 736 
72 -16 8 -40 -72 744 
-64 -64 64 -72 696 
-48 -16 80 -8 808 
-40 -64 56 -32 768 
-64 96 -8 -24 768 
80 -56 -32 -32 760 
-80 -40 88 -48 704 